10.403: [GC pause (young) 204M->28M(1024M), 0.0273260 secs]
11.574: [GC pause (young) 206M->34M(1024M), 0.0250090 secs]
13.138: [GC pause (young) 212M->48M(1024M), 0.0323710 secs]
13.991: [GC pause (young) 226M->69M(1024M), 0.0627410 secs]
15.026: [GC pause (young) 247M->102M(1024M), 0.1658740 secs]
15.955: [GC pause (young) 312M->133M(1024M), 0.0626280 secs]
16.941: [GC pause (young) 360M->170M(1024M), 0.0574640 secs]
18.004: [GC pause (young) 458M->213M(1024M), 0.1854630 secs]
21.578: [GC pause (young) 500M->216M(1024M), 0.0388010 secs]
26.108: [GC pause (young) 643M->233M(1024M), 0.0399110 secs]
30.773: [GC pause (young) 880M->249M(1024M), 0.0590090 secs]
37.492: [GC pause (young) 864M->278M(1024M), 0.0904410 secs]
46.727: [GC pause (young) 843M->292M(1024M), 0.0820640 secs]
56.630: [GC pause (young) 955M->394M(1040M), 0.0771990 secs]
58.499: [GC pause (young) 851M->402M(1040M), 0.0711400 secs]
63.740: [GC pause (young) 879M->409M(1040M), 0.0546920 secs]
67.854: [GC pause (young) 873M->419M(1040M), 0.0643500 secs]
69.842: [GC pause (young) 878M->437M(1040M), 0.0668990 secs]
71.557: [GC pause (young) 873M->444M(1040M), 0.0688800 secs]
72.718: [GC pause (young) 874M->450M(1040M), 0.0519410 secs]
74.804: [GC pause (young) 879M->460M(1040M), 0.0638140 secs]
78.344: [GC pause (young) 883M->460M(1040M), 0.0795280 secs]
80.869: [GC pause (young) 883M->460M(1040M), 0.0513300 secs]
96.073: [GC pause (young) 893M->464M(1040M), 0.0499380 secs]
105.675: [GC pause (young) 889M->465M(1040M), 0.0478620 secs]
111.336: [GC pause (young) 886M->488M(1040M), 0.0584600 secs]
113.659: [GC pause (young) 865M->477M(1040M), 0.0688970 secs]
116.157: [GC pause (young) (initial-mark) 778M->488M(1040M), 0.0817420 secs]
116.240: [GC concurrent-root-region-scan-start]
116.277: [GC concurrent-root-region-scan-end, 0.0368920]
116.277: [GC concurrent-mark-start]
116.678: [GC concurrent-mark-end, 0.4013390 sec]
116.679: [GC remark, 0.0394100 secs]
116.720: [GC cleanup 518M->324M(1040M), 0.0046350 secs]
116.725: [GC concurrent-cleanup-start]
116.725: [GC concurrent-cleanup-end, 0.0005240]
562.000: [GC pause (young) 860M->495M(1040M), 0.0913590 secs]
563.541: [GC pause (mixed) 649M->425M(1040M), 0.2160440 secs]
570.006: [GC pause (young) 884M->434M(1040M), 0.0802490 secs]
689.075: [GC pause (young) 885M->440M(1040M), 0.0418590 secs]
700.343: [GC pause (young) 881M->482M(1040M), 0.0712200 secs]
703.589: [GC pause (young) 845M->448M(1040M), 0.0510150 secs]
714.107: [GC pause (young) 875M->456M(1040M), 0.0663000 secs]
714.378: [GC pause (young) (initial-mark) 536M->454M(1040M), 0.0805920 secs]
714.458: [GC concurrent-root-region-scan-start]
714.505: [GC concurrent-root-region-scan-end, 0.0465220]
714.505: [GC concurrent-mark-start]
715.014: [GC concurrent-mark-end, 0.5093310 sec]
715.016: [GC remark, 0.0499100 secs]
715.067: [GC cleanup 571M->389M(1040M), 0.0020740 secs]
715.069: [GC concurrent-cleanup-start]
715.069: [GC concurrent-cleanup-end, 0.0004960]
730.180: [GC pause (young) 687M->275M(1040M), 0.0611980 secs]
736.393: [GC pause (young) 905M->279M(1040M), 0.0613500 secs]
741.528: [GC pause (young) 903M->301M(1040M), 0.0754910 secs]
745.502: [GC pause (young) 877M->314M(1040M), 0.0742900 secs]
